Fecha,TT,Descripción,No. Doc,Debe (Q.),Haber (Q.),Saldo (Q.)
14-oct,NC,PLANILLA,316314,,2500,2500
17-oct,ND,FRANQUICASA (BURGER KI GT,173279,35,,2465
17-oct,ND,FRANQUICASA (BURGER KI GT,176276,35,,2430
17-oct,ND,FRANQUICASA (BURGER KI GT,183946,126,,2304
18-oct,ND,& CAFE ATANASIO GT,89600,21,,2283
18-oct,ND,SUBWAY 102 UFM GT,190795,30,,2253
18-oct,ND,CARICIA DE GUATEMALA GT,282574,240,,2013
19-oct,ND,CLARO SAN CRISTOBAL GT,251584,778,,1235
20-oct,ND,COMERCIAL SAN CRISTOBAL,5645,50,,1185
21-oct,ND,SUBWAY 102 UFM GT,188684,35,,1150
24-oct,ND,UFM PARQUEO GARITA 2 GT,171128,12,,1138
24-oct,ND,SUBWAY 102 UFM GT,177023,25,,1113
25-oct,ND,SUBWAY 102 UFM GT,231711,30,,1083
27-oct,NC,BANCA ELECTRONICA,183545,,1496,2579
27-oct,ND,& CAFE ATANASIO GT,132558,23,,2556
27-oct,ND,DISTR Y LIBRERIA SAN C GT,246679,20.5,,2535.5
27-oct,ND,INNOVA TU LECTURA GT,273235,800,,1735.5
28-oct,ND,U. FRANCISCO MARROQUMN,5599,50,,1685.5
28-oct,ND,& CAFE ATANASIO GT,159554,24,,1661.5
28-oct,ND,LITTLE CAESARS (PLAZA GT,225607,65,,1596.5
28-oct,ND,CHOCOFRUIT SAN CRISTOB GT,257118,23,,1573.5
29-oct,NC,PLANILLA,372199,,1506.8,3080.3
30-oct,ND,TEXACO MILENIO GT,157379,40,,3040.3
30-oct,ND,59 MEGAPACA CARABANCHE GT,188716,35,,3005.3
30-oct,ND,POPS MILENIO 20-01-22 GT,191321,19.95,,2985.35
30-oct,ND,CLARO SAN CRISTOBAL GT,207849,333,,2652.35
31-oct,ND,EL PINCHE TAQUERIA FAM GT,170726,31.5,,2620.85
31-oct,ND,KFC SAN CRISTOBAL GT,178246,115,,2505.85