Fecha,TT,Descripción,No. Doc,Debe (Q.),Haber (Q.),Saldo (Q.)
14-oct,NC,PLANILLA,316314,,2500,2500
17-oct,ND,FRANQUICASA (BURGER KI GT,173279,35,,2465
17-oct,ND,FRANQUICASA (BURGER KI GT,176276,35,,2430
17-oct,ND,FRANQUICASA (BURGER KI GT,183946,126,,2304
18-oct,ND,& CAFE ATANASIO GT,89600,21,,2283
18-oct,ND,SUBWAY 102 UFM GT,190795,30,,2253
18-oct,ND,CARICIA DE GUATEMALA GT,282574,240,,2013
19-oct,ND,CLARO SAN CRISTOBAL GT,251584,778,,1235
20-oct,ND,COMERCIAL SAN CRISTOBAL,5645,50,,1185
21-oct,ND,SUBWAY 102 UFM GT,188684,35,,1150
24-oct,ND,UFM PARQUEO GARITA 2 GT,171128,12,,1138
24-oct,ND,SUBWAY 102 UFM GT,177023,25,,1113
25-oct,ND,SUBWAY 102 UFM GT,231711,30,,1083
27-oct,NC,BANCA ELECTRONICA,183545,,1496,2579
27-oct,ND,& CAFE ATANASIO GT,132558,23,,2556
27-oct,ND,DISTR Y LIBRERIA SAN C GT,246679,20.5,,2535.5
27-oct,ND,INNOVA TU LECTURA GT,273235,800,,1735.5
28-oct,ND,U. FRANCISCO MARROQUMN,5599,50,,1685.5
28-oct,ND,& CAFE ATANASIO GT,159554,24,,1661.5
28-oct,ND,LITTLE CAESARS (PLAZA GT,225607,65,,1596.5
28-oct,ND,CHOCOFRUIT SAN CRISTOB GT,257118,23,,1573.5
29-oct,NC,PLANILLA,372199,,1506.8,3080.3
30-oct,ND,TEXACO MILENIO GT,157379,40,,3040.3
30-oct,ND,59 MEGAPACA CARABANCHE GT,188716,35,,3005.3
30-oct,ND,POPS MILENIO 20-01-22 GT,191321,19.95,,2985.35
30-oct,ND,CLARO SAN CRISTOBAL GT,207849,333,,2652.35
31-oct,ND,EL PINCHE TAQUERIA FAM GT,170726,31.5,,2620.85
31-oct,ND,KFC SAN CRISTOBAL GT,178246,115,,2505.85
1-nov,ND,COBRO RETIRO BANCARED,205035,5,,2500.85
1-nov,ND,RETIRO EFECTIVO BANCARED,205035,300,,2200.85
2-nov,ND,& CAFE ATANASIO GT,127959,21,,2179.85
2-nov,ND,SUBWAY 102 UFM GT,141378,30,,2149.85
2-nov,ND,SUBWAY 102 UFM GT,160018,10,,2139.85
3-nov,ND,PLAN FUTURO PROGRAMADO,5678,109,,2030.85
3-nov,ND,SUBWAY 102 UFM GT,136749,35,,1995.85
4-nov,DE,AGENCIA LA UNION,12162293,,14000,15995.85
4-nov,ND,STAR MART EL MILENIO,975,100,,15895.85
4-nov,ND,INNOVA TU LECTURA GT,189235,1110,,14785.85
5-nov,CQ,AGENCIA COMERCIAL SAN CRISTOBAL,1,4500,,10285.85
7-nov,ND,& CAFE ATANASIO GT,132974,21,,10264.85
8-nov,ND,MEMBRESIA CLUB BI,42909,5,,10259.85
8-nov,ND,CAFE GITANE (UFM) GT,191735,22,,10237.85
8-nov,ND,SUBWAY 102 UFM GT,214801,35,,10202.85
9-nov,CQ,AGENCIA CD SAN CRISTOBAL,2,3400,,6802.85
9-nov,ND,SUBWAY 102 UFM GT,127663,15,,6787.85
9-nov,ND,PC SAN CRISTOBAL INTEL GT,261470,1219,,5568.85
9-nov,ND,AGENCIA CD SAN CRISTOBAL,12038435,100,,5468.85
10-nov,ND,& CAFE ATANASIO GT,165429,25,,5443.85
11-nov,ND,PIZZA HUT (CALL CENT GT,207750,121,,5322.85
11-nov,ND,CAFE GITANE (UFM) GT,217241,24,,5298.85
12-nov,ND,STAR MART EL MILENIO,2437,150,,5148.85
14-nov,NC,PLANILLA,427314,,2500,7648.85
14-nov,ND,U. FRANCISCO MARROQUMN,9151,50,,7598.85
14-nov,ND,SUBWAY 102 UFM GT,171923,35,,7563.85
14-nov,ND,NEWAY TOURS GT,238614,379,,7184.85
14-nov,ND,MERCADITO LA ESQUINA GT,303578,85.8,,7099.05
15-nov,ND,U. FRANCISCO MARROQUMN,9562,50,,7049.05
15-nov,ND,U. FRANCISCO MARROQUMN,9610,100,,6949.05
16-nov,ND,PAIZ SAN CRISTOBAL GT,216775,200.7,,6748.35
16-nov,ND,AL MACARONE PLZA SAN C GT,240640,57,,6691.35
17-nov,ND,& CAFE ATANASIO GT,107045,40,,6651.35
18-nov,DE,AGENCIA MIX SAN CRISTOBAL,4208267,,8000,14651.35
18-nov,CQ,AGENCIA CD SAN CRISTOBAL,3,3500,,11151.35
18-nov,ND,SUBWAY 102 UFM GT,136532,25,,11126.35
18-nov,ND,MOVIM. EN DOLARES ELECTRON,228179,37.85,,11088.5
21-nov,ND,TEXACO MILENIO GT,99412,317.98,,10770.52
21-nov,ND,SUBWAY 105 TIKAL FUTUR GT,112264,15,,10755.52
21-nov,ND,BURGER KING (B&A VISTA GT,141493,35,,10720.52
21-nov,ND,AL MACARONE TIKAL FUTU GT,150339,19,,10701.52
22-nov,CQ,AGENCIA CD SAN CRISTOBAL,4,1500,,9201.52
22-nov,ND,STAR MART EL MILENIO,5300,1000,,8201.52
22-nov,ND,STAR MART EL MILENIO,5302,500,,7701.52
22-nov,ND,SUBWAY 102 UFM GT,220507,25,,7676.52
23-nov,DE,AGENCIA WALMART SAN NICOLAS,14666034,,2000,9676.52
24-nov,ND,SUBWAY 102 UFM GT,164161,15,,9661.52
25-nov,DE,AGENCIA CD SAN CRISTOBAL,63148318,,15050,24711.52
25-nov,CQ,AGENCIA CD SAN CRISTOBAL,5,5000,,19711.52
25-nov,ND,U. FRANCISCO MARROQUMN,2105,100,,19611.52
25-nov,ND,SUBWAY 102 UFM GT,86363,15,,19596.52
25-nov,ND,SUBWAY 102 UFM GT,199041,25,,19571.52
25-nov,ND,SUBWAY 102 UFM GT,228200,35,,19536.52
26-nov,ND,STAR MART EL MILENIO,6323,500,,19036.52
26-nov,ND,STAR MART EL MILENIO,6325,300,,18736.52
28-nov,DE,AGENCIA WALMART SAN NICOLAS,14668607,,4000,22736.52
28-nov,CQ,AGENCIA CD SAN CRISTOBAL,6,9000,,13736.52
28-nov,ND,TEXACO MILENIO GT,92973,319.07,,13417.45
28-nov,ND,SUBWAY 102 UFM GT,135650,25,,13392.45
28-nov,ND,AL MACARONE TIKAL FUTU GT,150524,19,,13373.45
28-nov,ND,MOVIM. EN DOLARES ELECTRON,156702,20.69,,13352.76
28-nov,ND,DOLLARCITY GUATEMALA S GT,225627,108,,13244.76
28-nov,ND,OFFICE DEPOT SAN CRIST GT,238136,660.3,,12584.46
29-nov,NC,PLANILLA,477317,,2508.5,15092.96
30-nov,ND,U. FRANCISCO MARROQUMN,3071,50,,15042.96
1-dic,DE,AGENCIA MIX SAN CRISTOBAL,6867733,,11284.8,26327.76
1-dic,ND,STAR MART EL MILENIO,7715,1000,,25327.76
1-dic,ND,STAR MART EL MILENIO,7717,500,,24827.76
2-dic,ND,AUTO SAN CRISTOBAL II,3002,1000,,23827.76
2-dic,ND,MOVIM. EN DOLARES ELECTRON,62887,18.77,,23808.99
2-dic,ND,SUBWAY 102 UFM GT,122426,15,,23793.99
2-dic,ND,SUBWAY 102 UFM GT,179674,25,,23768.99
2-dic,ND,SUBWAY 102 UFM GT,212086,43,,23725.99
3-dic,ND,PLAN FUTURO PROGRAMADO,5678,109,,23616.99
3-dic,ND,MEMBRESIA CLUB BI,42355,5,,23611.99
5-dic,ND,SUBWAY 102 UFM GT,122166,25,,23586.99
5-dic,ND,SUBWAY 102 UFM GT,202150,35,,23551.99
5-dic,ND,PANADERIA SAN MARTIN V GT,229193,28,,23523.99
6-dic,ND,CAFE GITANE (UFM) GT,184533,28,,23495.99
6-dic,ND,SUBWAY 102 UFM GT,230433,35,,23460.99
6-dic,CQ,PRIMERA COMPENSACION,9,6939.25,,16521.74
7-dic,ND,TEXACO MILENIO GT,137905,319.98,,16201.76
7-dic,ND,CAFE GITANE (UFM) GT,217305,12,,16189.76
8-dic,CQ,AGENCIA CD SAN CRISTOBAL,10,3500,,12689.76
8-dic,ND,CAFE GITANE (UFM) GT,204920,11,,12678.76
9-dic,DE,AGENCIA VARIETA,14651372,,3200,15878.76
9-dic,DE,AGENCIA CD SAN CRISTOBAL,63155715,,19000,34878.76
9-dic,ND,SUBWAY 102 UFM GT,208725,30,,34848.76
11-dic,CQ,AGENCIA COMERCIAL SAN CRISTOBAL,11,2300,,32548.76
11-dic,ND,STAR MART EL MILENIO,844,2000,,30548.76
12-dic,CQ,AGENCIA MIRAFLORES,12,9577,,20971.76
12-dic,ND,STAR MART EL MILENIO,1098,2000,,18971.76
12-dic,ND,CEMACO SAN CRISTOBAL GT,193534,209.96,,18761.8
12-dic,ND,DOLLARCITY GUATEMALA S GT,225314,100,,18661.8
12-dic,ND,FARMACIA CAROLINA & H GT,244692,49.37,,18612.43
14-dic,NC,PLANILLA,549194,,2500,21112.43
14-dic,ND,U. FRANCISCO MARROQUMN,5144,100,,21012.43
14-dic,ND,& CAFE ATANASIO GT,142541,21,,20991.43
14-dic,ND,SUBWAY 102 UFM GT,196570,30,,20961.43
14-dic,ND,MCDONALDS OAKLAND MA GT,290499,42,,20919.43
15-dic,DE,AGENCIA PLAZA SAN NICOLAS,14636732,,2000,22919.43
15-dic,NC,PLANILLA,550316,,375,23294.43
15-dic,ND,U. FRANCISCO MARROQUMN,5567,50,,23244.43
16-dic,DE,AGENCIA MIX SAN CRISTOBAL,6851982,,27910.56,51154.99
16-dic,ND,CAFE GITANE (UFM) GT,166155,19,,51135.99
19-dic,DE,AGENCIA WALMART ROOSEVELT,14242563,,11730,62865.99
19-dic,NC,PLANILLA,551315,,3269.86,66135.85
19-dic,ND,BURGER KING AMERICAS GT,113747,78.2,,66057.65
19-dic,ND,SUBWAY 102 UFM GT,115252,15,,66042.65
19-dic,ND,TACO BELL Ñ13 GT,184706,40,,66002.65
20-dic,ND,STAR MART EL MILENIO,4039,2000,,64002.65
20-dic,CQ,PRIMERA COMPENSACION,13,2900,,61102.65
21-dic,ND,A.T.M.S.,6201,1000,,60102.65
21-dic,ND,A.T.M.S.,6203,300,,59802.65
22-dic,ND,KFC OAKLAND MALL GT,202699,43,,59759.65
22-dic,ND,KFC OAKLAND MALL GT,229031,62,,59697.65
22-dic,CQ,PRIMERA COMPENSACION,14,8000,,51697.65
23-dic,DE,AGENCIA CD SAN CRISTOBAL,17677819,,3455.62,55153.27
23-dic,DE,AGENCIA CD SAN CRISTOBAL,64319826,,10332,65485.27
23-dic,CQ,AGENCIA COMERCIAL SAN CRISTOBAL,15,3000,,62485.27
23-dic,ND,STAR MART EL MILENIO,4712,1000,,61485.27
24-dic,ND,STAR MART EL MILENIO,5155,2000,,59485.27
26-dic,ND,STAR MART EL MILENIO,5541,2000,,57485.27
27-dic,ND,SHORTYS GT,196189,50,,57435.27
27-dic,ND,TEXACO MILENIO GT,200164,170.73,,57264.54
27-dic,ND,MI SUPER FRESH SAN CRI GT,201429,378.92,,56885.62
27-dic,ND,ORGANIZACION RIMET GT,241784,375,,56510.62
27-dic,ND,TACO BELL SAN CRISTOBA GT,297852,80,,56430.62
27-dic,CQ,PRIMERA COMPENSACION,16,23913,,32517.62
28-dic,NC,BANCA ELECTRONICA,165654,,2244,34761.62
28-dic,ND,STAR MART EL MILENIO,5992,150,,34611.62
28-dic,ND,178 POLLO CAMPERO OAKL GT,139718,49,,34562.62
28-dic,ND,MOVIM. EN DOLARES ELECTRON,186500,60.87,,34501.75
28-dic,ND,LITTLE CAESARS (PLAZA GT,201402,65,,34436.75
29-dic,ND,PAIZ SAN CRISTOBAL GT,222448,154.9,,34281.85
30-dic,ND,STAR MART EL MILENIO,6616,500,,33781.85
30-dic,ND,EL PINCHE OAKLAND GT,153240,50,,33731.85
31-dic,ND,STAR MART EL MILENIO,7033,1000,,32731.85
1-ene,ND,COBRO RETIRO BANCARED,250530,5,,32726.85
1-ene,ND,RETIRO EFECTIVO BANCARED,250530,100,,32626.85
2-ene,ND,U. FRANCISCO MARROQUMN,6468,100,,32526.85
2-ene,ND,MOVIM. EN DOLARES ELECTRON,179732,7.56,,32519.29
2-ene,ND,PC SAN CRISTOBAL INTEL GT,195717,562,,31957.29
2-ene,ND,MIRAFLORES ELECT PANAM GT,230277,398,,31559.29
2-ene,ND,MOVIM. EN DOLARES ELECTRON,254126,38.2,,31521.09
2-ene,ND,MIRAFLORES ELECT PANAM GT,304367,200,,31321.09
3-ene,DE,AGENCIA COMERCIAL CARDALES,11628805,,2600,33921.09
3-ene,ND,PLAN FUTURO PROGRAMADO,5678,109,,33812.09
3-ene,ND,MEMBRESIA CLUB BI,25954,5,,33807.09
3-ene,ND,SHELL LAS CHARCAS GT,148156,15.7,,33791.39
3-ene,ND,CAFE GITANE (UFM) GT,199115,26,,33765.39
4-ene,ND,STAR MART EL MILENIO,7988,100,,33665.39
4-ene,ND,CAFE GITANE (UFM) GT,123111,22,,33643.39
4-ene,ND,SUBWAY 102 UFM GT,177184,49,,33594.39
6-ene,DE,AGENCIA CD SAN CRISTOBAL,17666923,,11000,44594.39
6-ene,DE,AGENCIA CD SAN CRISTOBAL,17666924,,2000,46594.39
6-ene,ND,CAFE GITANE (UFM) GT,180267,26,,46568.39
6-ene,ND,& CAFE ATANASIO GT,188379,17,,46551.39
7-ene,CQ,AGENCIA PLAZA FLORIDA,17,9570,,36981.39
9-ene,ND,U. FRANCISCO MARROQUMN,7337,100,,36881.39
9-ene,ND,SUBWAY 102 UFM GT,78501,15,,36866.39
9-ene,ND,TEXACO MILENIO GT,88915,190.05,,36676.34
9-ene,ND,CAFE GITANE (UFM) GT,147687,26,,36650.34
9-ene,ND,SUBWAY 102 UFM GT,157574,35,,36615.34
9-ene,ND,SALA DE BELLEZA DANNY GT,204706,159,,36456.34
10-ene,ND,SUBWAY 102 UFM GT,129792,25,,36431.34
13-ene,ND,SUBWAY 102 UFM GT,117292,25,,36406.34
13-ene,ND,REBECAS CLOTHES P.S.CR GT,225992,155,,36251.34
14-ene,NC,PLANILLA,618045,,3000,39251.34
14-ene,CQ,AGENCIA COMERCIAL SAN CRISTOBAL,20,1500,,37751.34
14-ene,ND,STAR MART EL MILENIO,505,2000,,35751.34
15-ene,NC,PLANILLA,619315,,375,36126.34
16-ene,ND,TEXACO MILENIO GT,133270,190.12,,35936.22
16-ene,ND,AL MACARONE PLZA SAN C GT,180103,83,,35853.22
16-ene,ND,CAFE GITANE (UFM) GT,199404,12,,35841.22
16-ene,ND,& CAFE ATANASIO GT,211838,21,,35820.22
16-ene,ND,DISTELSA GT,213686,179,,35641.22
16-ene,ND,AL MACARONE PLZA SAN C GT,251036,19,,35622.22
16-ene,ND,AL MACARONE PLZA SAN C GT,291501,19,,35603.22
17-ene,CQ,AGENCIA CD SAN CRISTOBAL,19,1500,,34103.22
17-ene,ND,U. FRANCISCO MARROQUMN,9540,50,,34053.22
17-ene,ND,SUBWAY 102 UFM GT,99705,15,,34038.22
17-ene,ND,SUBWAY 102 UFM GT,118004,25,,34013.22
17-ene,ND,MI SUPER FRESH SAN CRI GT,196487,24.2,,33989.02
17-ene,ND,NUTRIPUNTO GT,210266,35,,33954.02
17-ene,CQ,PRIMERA COMPENSACION,7,12688.59,,21265.43
17-ene,CQ,PRIMERA COMPENSACION,18,4000,,17265.43
18-ene,CQ,AGENCIA CD SAN CRISTOBAL,21,2100,,15165.43
18-ene,ND,& CAFE ATANASIO GT,179946,31.5,,15133.93
19-ene,DE,AGENCIA CD SAN CRISTOBAL,20249606,,4000,19133.93
19-ene,DE,AGENCIA CD SAN CRISTOBAL,64318096,,18669,37802.93
19-ene,CQ,AGENCIA CD SAN CRISTOBAL,22,18014,,19788.93
19-ene,ND,U. FRANCISCO MARROQUMN,177,50,,19738.93
20-ene,ND,STAR MART EL MILENIO,2287,2000,,17738.93
20-ene,ND,& CAFE ATANASIO GT,119470,25,,17713.93
20-ene,ND,& CAFE ATANASIO GT,178654,25,,17688.93
23-ene,ND,& CAFE ATANASIO GT,150849,25,,17663.93
23-ene,ND,CAFE GITANE (UFM) GT,214625,26,,17637.93
23-ene,CQ,PRIMERA COMPENSACION,23,802,,16835.93
24-ene,ND,SUBWAY 102 UFM GT,141789,30,,16805.93
24-ene,ND,SUBWAY 102 UFM GT,168102,15,,16790.93
24-ene,ND,NUTRIPUNTO GT,196430,35,,16755.93
24-ene,ND,LITTLE CAESARS GT,220525,70,,16685.93
25-ene,ND,SUBWAY 102 UFM GT,111592,15,,16670.93
25-ene,ND,NUTRIPUNTO GT,144348,35,,16635.93
25-ene,ND,CAFE GITANE (UFM) GT,189828,26,,16609.93
26-ene,ND,U. FRANCISCO MARROQUMN,1940,50,,16559.93
26-ene,ND,SUBWAY 102 UFM GT,208521,30,,16529.93
26-ene,ND,MCDONALDS Ñ21 SAN CR GT,258477,81,,16448.93
27-ene,DE,AGENCIA MIX SAN CRISTOBAL,17618904,,10000,26448.93
27-ene,ND,U. FRANCISCO MARROQUMN,2411,50,,26398.93
27-ene,ND,TEXACO MILENIO GT,132162,100,,26298.93
27-ene,ND,MOVIM. EN DOLARES ELECTRON,181381,59.79,,26239.14
27-ene,ND,INMOBILIARIA LAS MAJAD GT,262422,20,,26219.14
29-ene,CQ,AGENCIA COMERCIAL SAN CRISTOBAL,24,6400,,19819.14
30-ene,NC,PLANILLA,671312,,2812.19,22631.33
30-ene,CQ,AGENCIA CD SAN CRISTOBAL,25,2000,,20631.33
30-ene,ND,SUPER TIENDA PAIZ ASUN GT,146520,199.9,,20431.43
30-ene,ND,BURGER KING SAN CRISTO GT,166931,52.2,,20379.23
30-ene,ND,NUTRIPUNTO GT,212733,35,,20344.23
30-ene,ND,ESTACION DE SERVICIO L GT,236604,100,,20244.23
31-ene,NC,BANCA ELECTRONICA,156575,,884,21128.23
31-ene,ND,NUTRIPUNTO GT,174936,35,,21093.23
2-Feb,ND,& CAFE ATANASIO GT,126198,47,,21046.23
2-Feb,ND,NUTRIPUNTO GT,151768,23,,21023.23
2-Feb,ND,TEXACO MILENIO GT,161417,249.34,,20773.89
2-Feb,ND,SUBWAY 102 UFM GT,170474,15,,20758.89
2-Feb,ND,NUTRIPUNTO GT,194064,16,,20742.89
2-Feb,ND,PC SAN CRISTOBAL INTEL GT,209108,336,,20406.89
2-Feb,ND,MOVIM. EN DOLARES ELECTRON,253096,37.7,,20369.19
2-Feb,ND,& CAFE ATANASIO GT,266064,25,,20344.19
3-Feb,ND,PLAN FUTURO PROGRAMADO,5678,109,,20235.19
3-Feb,ND,MEMBRESIA CLUB BI,43631,5,,20230.19
3-Feb,ND,SUBWAY 102 UFM GT,147214,25,,20205.19
3-Feb,ND,& CAFE ATANASIO GT,189382,17,,20188.19
4-Feb,DE,AGENCIA CD SAN CRISTOBAL,64881105,,14000,34188.19
4-Feb,CQ,AGENCIA CD SAN CRISTOBAL,26,3500,,30688.19
4-Feb,CQ,AGENCIA PLAZA FLORIDA,27,4711,,25977.19
4-Feb,ND,STAR MART EL MILENIO,5718,100,,25877.19
6-Feb,ND,SUBWAY 102 UFM GT,120093,15,,25862.19
6-Feb,ND,UNION DOS SUCURSAL Ñ6 GT,136642,15,,25847.19
6-Feb,ND,NUTRIPUNTO GT,148182,50,,25797.19
6-Feb,ND,MI SUPER FRESH SAN CRI GT,178147,200.55,,25596.64
6-Feb,ND,SUBWAY SAN CRISTOBAL GT,251129,15,,25581.64
6-Feb,ND,SUBWAY SAN CRISTOBAL GT,298523,30,,25551.64
7-Feb,CQ,AGENCIA COMERCIAL SAN CRISTOBAL,30,1000,,24551.64
7-Feb,ND,U. FRANCISCO MARROQUMN,5268,200,,24351.64
7-Feb,ND,U. FRANCISCO MARROQUMN,5270,50,,24301.64
7-Feb,ND,SHELL JARDINES DE LA A GT,210867,300,,24001.64
8-Feb,ND,SUBWAY 102 UFM GT,137965,43,,23958.64
8-Feb,ND,SUBWAY 102 UFM GT,200863,15,,23943.64
8-Feb,ND,PC SAN CRISTOBAL INTEL GT,234214,83,,23860.64
9-Feb,ND,STAR MART EL MILENIO,6612,100,,23760.64
10-Feb,CQ,AGENCIA COMERCIAL SAN CRISTOBAL,29,500,,23260.64
10-Feb,ND,SUBWAY 102 UFM GT,154397,15,,23245.64
13-Feb,CQ,AGENCIA REAL ASUNCION,31,413,,22832.64
13-Feb,ND,U. FRANCISCO MARROQUMN,6537,50,,22782.64
13-Feb,ND,STAR MART EL MILENIO,7684,150,,22632.64
13-Feb,ND,ZAPATERIAS COBAN PLAZA GT,152849,209.1,,22423.54
13-Feb,ND,SUBWAY 102 UFM GT,161231,35,,22388.54
13-Feb,ND,SUBWAY 102 UFM GT,162452,15,,22373.54
13-Feb,ND,SUBWAY 102 UFM GT,181623,45,,22328.54
13-Feb,ND,SUBWAY 102 UFM GT,192168,35,,22293.54
13-Feb,ND,CAFE GITANE (UFM) GT,198186,26,,22267.54
13-Feb,ND,SUBWAY 102 UFM GT,268667,15,,22252.54
14-Feb,NC,PLANILLA,707303,,3000,25252.54
14-Feb,ND,SUBWAY 102 UFM GT,127301,15,,25237.54
15-Feb,CQ,AGENCIA CD SAN CRISTOBAL,28,2150,,23087.54
15-Feb,ND,SUBWAY 102 UFM GT,185520,15,,23072.54
16-Feb,CQ,CAPILLAS ROOSEVELT,32,495,,22577.54
16-Feb,ND,& CAFE ATANASIO GT,193759,25,,22552.54
16-Feb,ND,SUELDO ASEGURADO,22317563,70,,22482.54
16-Feb,ND,FAMILIA SEGURA,22320681,80,,22402.54
17-Feb,CQ,AGENCIA COMERCIAL SAN CRISTOBAL,35,268,,22134.54
17-Feb,ND,CAFE GITANE (UFM) GT,198505,26,,22108.54
17-Feb,ND,SUBWAY 102 UFM GT,213205,35,,22073.54
17-Feb,ND,SUBWAY 102 UFM GT,231306,30,,22043.54
17-Feb,CQ,PRIMERA COMPENSACION,33,325,,21718.54
18-Feb,CQ,AGENCIA MIX SAN CRISTOBAL,34,362.5,,21356.04
18-Feb,ND,COMERCIAL SAN CRISTOBAL,4972,200,,21156.04
20-Feb,CQ,AGENCIA COMERCIAL SAN CRISTOBAL,36,1260,,19896.04
20-Feb,ND,CAFE GITANE (UFM) GT,198183,26,,19870.04
20-Feb,ND,SUBWAY 102 UFM GT,201984,30,,19840.04
21-Feb,ND,NUTRIPUNTO GT,158353,35,,19805.04
21-Feb,ND,CAFE GITANE (UFM) GT,211055,26,,19779.04
22-Feb,ND,U. FRANCISCO MARROQUMN,9081,200,,19579.04
22-Feb,ND,U. FRANCISCO MARROQUMN,9083,50,,19529.04
22-Feb,ND,SUBWAY 102 UFM GT,135340,25,,19504.04
22-Feb,ND,PLATZI US,220215,225.13,,19278.91
22-Feb,ND,SUBWAY 102 UFM GT,221975,15,,19263.91
22-Feb,ND,SUBWAY 102 UFM GT,253886,15,,19248.91
23-Feb,DE,AGENCIA CD SAN CRISTOBAL,22770100,,10000,29248.91
23-Feb,CQ,AGENCIA COMERCIAL VILLA NUEVA,37,600,,28648.91
23-Feb,ND,STAR MART EL MILENIO,361,50,,28598.91
23-Feb,ND,SUBWAY 102 UFM GT,114961,25,,28573.91
24-Feb,CQ,AGENCIA PLAZA FLORIDA,38,4891,,23682.91
24-Feb,ND,U. FRANCISCO MARROQUMN,9570,50,,23632.91
25-Feb,CQ,AGENCIA GALERIAS MIRAFLORES,39,3960,,19672.91
25-Feb,CQ,AGENCIA COMERCIAL SAN CRISTOBAL,40,1900,,17772.91
25-Feb,ND,STAR MART EL MILENIO,751,2000,,15772.91
27-Feb,NC,PLANILLA,749300,,2862.19,18635.1
27-Feb,ND,MEYKOS SAN CRISTOBAL,7937,300,,18335.1
27-Feb,ND,MCDONALDS Ñ21 SAN CR GT,137684,24,,18311.1
27-Feb,ND,MOVIM. EN DOLARES ELECTRON,150057,62.64,,18248.46
27-Feb,ND,MCDONALDS Ñ21 SAN CR GT,154691,86,,18162.46
27-Feb,ND,TEXACO MILENIO GT,164613,100,,18062.46
27-Feb,ND,SUBWAY 102 UFM GT,191279,15,,18047.46
27-Feb,ND,SUBWAY 102 UFM GT,228541,15,,18032.46
27-Feb,ND,MILENIO MART GT,292936,8,,18024.46
28-Feb,ND,EST. DE SERV. (LAS CHA GT,120823,260.05,,17764.41